11 Transformation with dplyr | Web Scraping using R
…
Note that mutate() is not limited to basic arithmetic operations. Many
functions can be applied within mutate(): sum() or mean() are two examples
we already know.

11.1.2 Cleaning the data on police reports

Now knowing the basic principle of working with mutate(), we can apply this to
the data on police reports we scraped in chapter 10.

First we have to load the data and examine what we are working with.

load("reports.RData")

reports
## # A tibble: 18,612 × 3
##    Date                 Report                               District           
##    <chr>                <chr>                                <chr>              
##  1 01.04.2022 13:20 Uhr "Mit E-Roller gestürzt – Mann schwe… Ereignisort: Mitte 
##  2 01.04.2022 12:10 Uhr "Räuberische Erpressung in Tankstel… Ereignisort: Spand…
##  3 01.04.2022 10:10 Uhr "Voller Bus wird während der Fahrt … Ereignisort: Fried…
##  4 01.04.2022 10:08 Uhr "Nach Krad-Diebstahl festgenommen"   Ereignisort: Tempe…
##  5 01.04.2022 09:46 Uhr "Schwer verletzter Motorradfahrer"   Ereignisort: Mitte 
##  6 01.04.2022 09:43 Uhr "Unfall im verkehrsberuhigten Berei… Ereignisort: Mitte 
##  7 31.03.2022 15:51 Uhr "Zivilstreife nimmt mehrere Frauen … Ereignisort: Stegl…
##  8 31.03.2022 14:28 Uhr "Abrechnungsbetrug beim Betrieb von… Ereignisort: berli…
##  9 31.03.2022 14:19 Uhr "Frau schlägt und bespuckt Polizist… Ereignisort: Pankow
## 10 31.03.2022 13:24 Uhr "Raub in Tankstelle"                 Ereignisort: Mitte 
## # … with 18,602 more rows
…
reports %>% 
  mutate(District = substr(District, 14, 99))
## # A tibble: 18,612 × 3
##    Date                 Report                                   District       
##    <chr>                <chr>                                    <chr>          
##  1 01.04.2022 13:20 Uhr "Mit E-Roller gestürzt – Mann schwer ve… Mitte          
##  2 01.04.2022 12:10 Uhr "Räuberische Erpressung in Tankstelle"   Spandau        
##  3 01.04.2022 10:10 Uhr "Voller Bus wird während der Fahrt besc… Friedrichshain…
##  4 01.04.2022 10:08 Uhr "Nach Krad-Diebstahl festgenommen"       Tempelhof-Schö…
##  5 01.04.2022 09:46 Uhr "Schwer verletzter Motorradfahrer"       Mitte          
##  6 01.04.2022 09:43 Uhr "Unfall im verkehrsberuhigten Bereich "  Mitte          
##  7 31.03.2022 15:51 Uhr "Zivilstreife nimmt mehrere Frauen nach… Steglitz-Zehle…
##  8 31.03.2022 14:28 Uhr "Abrechnungsbetrug beim Betrieb von Cor… berlinweit     
##  9 31.03.2022 14:19 Uhr "Frau schlägt und bespuckt Polizisten –… Pankow         
## 10 31.03.2022 13:24 Uhr "Raub in Tankstelle"                     Mitte          
## # … with 18,602 more rows

reports %>% 
  mutate(District = substr(District, 14, length(District)))
## # A tibble: 18,612 × 3
##    Date                 Report                                   District       
##    <chr>                <chr>                                    <chr>          
##  1 01.04.2022 13:20 Uhr "Mit E-Roller gestürzt – Mann schwer ve… Mitte          
##  2 01.04.2022 12:10 Uhr "Räuberische Erpressung in Tankstelle"   Spandau        
##  3 01.04.2022 10:10 Uhr "Voller Bus wird während der Fahrt besc… Friedrichshain…
##  4 01.04.2022 10:08 Uhr "Nach Krad-Diebstahl festgenommen"       Tempelhof-Schö…
##  5 01.04.2022 09:46 Uhr "Schwer verletzter Motorradfahrer"       Mitte          
##  6 01.04.2022 09:43 Uhr "Unfall im verkehrsberuhigten Bereich "  Mitte          
##  7 31.03.2022 15:51 Uhr "Zivilstreife nimmt mehrere Frauen nach… Steglitz-Zehle…
##  8 31.03.2022 14:28 Uhr "Abrechnungsbetrug beim Betrieb von Cor… berlinweit     
##  9 31.03.2022 14:19 Uhr "Frau schlägt und bespuckt Polizisten –… Pankow         
## 10 31.03.2022 13:24 Uhr "Raub in Tankstelle"                     Mitte          
## # … with 18,602 more rows

The column “Date” includes the date and the time of each report as a character
string. To be able to use this data in analysis, we have to extract the date and
time in a format R can understand. This is easily achieved using the parsing
functions from lubridate. As the character data are written in the format
“day.month.year hour:minute”, we have to use the function dmy_hm() on the
column.

reports %>% 
  mutate(date_cmpl = dmy_hm(Date))
## # A tibble: 18,612 × 4
##    Date                 Report                District       date_cmpl          
##    <chr>                <chr>                 <chr>          <dttm>             
##  1 01.04.2022 13:20 Uhr "Mit E-Roller gestür… Ereignisort: … 2022-04-01 13:20:00
##  2 01.04.2022 12:10 Uhr "Räuberische Erpress… Ereignisort: … 2022-04-01 12:10:00
##  3 01.04.2022 10:10 Uhr "Voller Bus wird wäh… Ereignisort: … 2022-04-01 10:10:00
##  4 01.04.2022 10:08 Uhr "Nach Krad-Diebstahl… Ereignisort: … 2022-04-01 10:08:00
##  5 01.04.2022 09:46 Uhr "Schwer verletzter M… Ereignisort: … 2022-04-01 09:46:00
##  6 01.04.2022 09:43 Uhr "Unfall im verkehrsb… Ereignisort: … 2022-04-01 09:43:00
##  7 31.03.2022 15:51 Uhr "Zivilstreife nimmt … Ereignisort: … 2022-03-31 15:51:00
##  8 31.03.2022 14:28 Uhr "Abrechnungsbetrug b… Ereignisort: … 2022-03-31 14:28:00
##  9 31.03.2022 14:19 Uhr "Frau schlägt und be… Ereignisort: … 2022-03-31 14:19:00
## 10 31.03.2022 13:24 Uhr "Raub in Tankstelle"  Ereignisort: … 2022-03-31 13:24:00
## # … with 18,602 more rows
…
year() extracts the year, month() the month and wday() the day of the
week. The argument label = TRUE tells the function to use the names of months
and days instead of a numerical value ranging from \(1\) to \(12\) and \(1\) to \(7\)
respectively.

reports %>% 
  mutate(date_cmpl = dmy_hm(Date),
         year = year(date_cmpl),
         month = month(date_cmpl, label = TRUE),
         day = wday(date_cmpl, label = TRUE)
         )
## # A tibble: 18,612 × 7
##    Date                 Report    District date_cmpl            year month day  
##    <chr>                <chr>     <chr>    <dttm>              <dbl> <ord> <ord>
##  1 01.04.2022 13:20 Uhr "Mit E-R… Ereigni… 2022-04-01 13:20:00  2022 Apr   Fr   
##  2 01.04.2022 12:10 Uhr "Räuberi… Ereigni… 2022-04-01 12:10:00  2022 Apr   Fr   
##  3 01.04.2022 10:10 Uhr "Voller … Ereigni… 2022-04-01 10:10:00  2022 Apr   Fr   
##  4 01.04.2022 10:08 Uhr "Nach Kr… Ereigni… 2022-04-01 10:08:00  2022 Apr   Fr   
##  5 01.04.2022 09:46 Uhr "Schwer … Ereigni… 2022-04-01 09:46:00  2022 Apr   Fr   
##  6 01.04.2022 09:43 Uhr "Unfall … Ereigni… 2022-04-01 09:43:00  2022 Apr   Fr   
##  7 31.03.2022 15:51 Uhr "Zivilst… Ereigni… 2022-03-31 15:51:00  2022 Mär   Do   
##  8 31.03.2022 14:28 Uhr "Abrechn… Ereigni… 2022-03-31 14:28:00  2022 Mär   Do   
##  9 31.03.2022 14:19 Uhr "Frau sc… Ereigni… 2022-03-31 14:19:00  2022 Mär   Do   
## 10 31.03.2022 13:24 Uhr "Raub in… Ereigni… 2022-03-31 13:24:00  2022 Mär   Do   
## # … with 18,602 more rows

To extract the time of day, we first have to extract the substring of “Date”
that contains the time and then apply the lubridate function hm() to it.

reports %>% 
  mutate(time = 
           substr(Date, 12, length(Date)) %>% 
           hm()
         )
## # A tibble: 18,612 × 4
##    Date                 Report                       District         time      
##    <chr>                <chr>                        <chr>            <Period>  
##  1 01.04.2022 13:20 Uhr "Mit E-Roller gestürzt – Ma… Ereignisort: Mi… 13H 20M 0S
##  2 01.04.2022 12:10 Uhr "Räuberische Erpressung in … Ereignisort: Sp… 12H 10M 0S
##  3 01.04.2022 10:10 Uhr "Voller Bus wird während de… Ereignisort: Fr… 10H 10M 0S
##  4 01.04.2022 10:08 Uhr "Nach Krad-Diebstahl festge… Ereignisort: Te… 10H 8M 0S 
##  5 01.04.2022 09:46 Uhr "Schwer verletzter Motorrad… Ereignisort: Mi… 9H 46M 0S 
##  6 01.04.2022 09:43 Uhr "Unfall im verkehrsberuhigt… Ereignisort: Mi… 9H 43M 0S 
##  7 31.03.2022 15:51 Uhr "Zivilstreife nimmt mehrere… Ereignisort: St… 15H 51M 0S
##  8 31.03.2022 14:28 Uhr "Abrechnungsbetrug beim Bet… Ereignisort: be… 14H 28M 0S
##  9 31.03.2022 14:19 Uhr "Frau schlägt und bespuckt … Ereignisort: Pa… 14H 19M 0S
## 10 31.03.2022 13:24 Uhr "Raub in Tankstelle"         Ereignisort: Mi… 13H 24M 0S
## # … with 18,602 more rows
…
reports <- reports %>% 
  mutate(District = substr(District, 14, length(District)),
         date_cmpl = dmy_hm(Date),
         year = year(date_cmpl),
         month = month(date_cmpl, label = TRUE),
         day = wday(date_cmpl, label = TRUE),
         time = 
           substr(Date, 12, length(Date)) %>% 
           hm()
         )

reports
## # A tibble: 18,612 × 8
##    Date    Report     District  date_cmpl            year month day   time      
##    <chr>   <chr>      <chr>     <dttm>              <dbl> <ord> <ord> <Period>  
##  1 01.04.… "Mit E-Ro… Mitte     2022-04-01 13:20:00  2022 Apr   Fr    13H 20M 0S
##  2 01.04.… "Räuberis… Spandau   2022-04-01 12:10:00  2022 Apr   Fr    12H 10M 0S
##  3 01.04.… "Voller B… Friedric… 2022-04-01 10:10:00  2022 Apr   Fr    10H 10M 0S
##  4 01.04.… "Nach Kra… Tempelho… 2022-04-01 10:08:00  2022 Apr   Fr    10H 8M 0S 
##  5 01.04.… "Schwer v… Mitte     2022-04-01 09:46:00  2022 Apr   Fr    9H 46M 0S 
##  6 01.04.… "Unfall i… Mitte     2022-04-01 09:43:00  2022 Apr   Fr    9H 43M 0S 
##  7 31.03.… "Zivilstr… Steglitz… 2022-03-31 15:51:00  2022 Mär   Do    15H 51M 0S
##  8 31.03.… "Abrechnu… berlinwe… 2022-03-31 14:28:00  2022 Mär   Do    14H 28M 0S
##  9 31.03.… "Frau sch… Pankow    2022-03-31 14:19:00  2022 Mär   Do    14H 19M 0S
## 10 31.03.… "Raub in … Mitte     2022-03-31 13:24:00  2022 Mär   Do    13H 24M 0S
## # … with 18,602 more rows

11.2 select()

As we have already extracted all we need from the “Date” and “date_cmpl” columns,
and we will not work with the “Report” column in this chapter, to keep the
tibble neat and free of clutter, we remove the three columns by using the
function select(). select() is used for selecting columns from a tibbble. The
function takes the data as its first argument – here provided by the pipe –
and one or several names of columns that should be kept. If columns follow after
each other in order, we can also use a “from:to” notation.

reports %>% 
  select(District, year, month, day, time)
## # A tibble: 18,612 × 5
##    District                  year month day   time      
##    <chr>                    <dbl> <ord> <ord> <Period>  
##  1 Mitte                     2022 Apr   Fr    13H 20M 0S
##  2 Spandau                   2022 Apr   Fr    12H 10M 0S
##  3 Friedrichshain-Kreuzberg  2022 Apr   Fr    10H 10M 0S
##  4 Tempelhof-Schöneberg      2022 Apr   Fr    10H 8M 0S 
##  5 Mitte                     2022 Apr   Fr    9H 46M 0S 
##  6 Mitte                     2022 Apr   Fr    9H 43M 0S 
##  7 Steglitz-Zehlendorf       2022 Mär   Do    15H 51M 0S
##  8 berlinweit                2022 Mär   Do    14H 28M 0S
##  9 Pankow                    2022 Mär   Do    14H 19M 0S
## 10 Mitte                     2022 Mär   Do    13H 24M 0S
## # … with 18,602 more rows

reports %>% 
  select(District, year:time)
## # A tibble: 18,612 × 5
##    District                  year month day   time      
##    <chr>                    <dbl> <ord> <ord> <Period>  
##  1 Mitte                     2022 Apr   Fr    13H 20M 0S
##  2 Spandau                   2022 Apr   Fr    12H 10M 0S
##  3 Friedrichshain-Kreuzberg  2022 Apr   Fr    10H 10M 0S
##  4 Tempelhof-Schöneberg      2022 Apr   Fr    10H 8M 0S 
##  5 Mitte                     2022 Apr   Fr    9H 46M 0S 
##  6 Mitte                     2022 Apr   Fr    9H 43M 0S 
##  7 Steglitz-Zehlendorf       2022 Mär   Do    15H 51M 0S
##  8 berlinweit                2022 Mär   Do    14H 28M 0S
##  9 Pankow                    2022 Mär   Do    14H 19M 0S
## 10 Mitte                     2022 Mär   Do    13H 24M 0S
## # … with 18,602 more rows

Instead of telling select() which columns we want to keep, we can also tell it
which ones not to keep by adding a - before the column names. If we want to
exclude multiple columns in one step, we combine them with the c() function
and write the - directly before it. In this last example we will assign the
result to reports.

reports <- reports %>% 
  select(-c(Date, Report, date_cmpl))

reports
## # A tibble: 18,612 × 5
##    District                  year month day   time      
##    <chr>                    <dbl> <ord> <ord> <Period>  
##  1 Mitte                     2022 Apr   Fr    13H 20M 0S
##  2 Spandau                   2022 Apr   Fr    12H 10M 0S
##  3 Friedrichshain-Kreuzberg  2022 Apr   Fr    10H 10M 0S
##  4 Tempelhof-Schöneberg      2022 Apr   Fr    10H 8M 0S 
##  5 Mitte                     2022 Apr   Fr    9H 46M 0S 
##  6 Mitte                     2022 Apr   Fr    9H 43M 0S 
##  7 Steglitz-Zehlendorf       2022 Mär   Do    15H 51M 0S
##  8 berlinweit                2022 Mär   Do    14H 28M 0S
##  9 Pankow                    2022 Mär   Do    14H 19M 0S
## 10 Mitte                     2022 Mär   Do    13H 24M 0S
## # … with 18,602 more rows
…
As you may have noticed, all newly created columns are written in lower case,
while “District” begins with an upper case letter. You may want to rename this
column to a lower case name – or all the others to upper case names, depending
on your preference.

One approach to renaming is using the function rename() from dplyr: the
function takes the data to be applied to as its first argument – again passed
on by the pipe here – followed by one or more arguments in the form
new_name = old_name.

reports <- reports %>% 
  rename(district = District)

reports
## # A tibble: 18,612 × 5
##    district                  year month day   time      
##    <chr>                    <dbl> <ord> <ord> <Period>  
##  1 Mitte                     2022 Apr   Fr    13H 20M 0S
##  2 Spandau                   2022 Apr   Fr    12H 10M 0S
##  3 Friedrichshain-Kreuzberg  2022 Apr   Fr    10H 10M 0S
##  4 Tempelhof-Schöneberg      2022 Apr   Fr    10H 8M 0S 
##  5 Mitte                     2022 Apr   Fr    9H 46M 0S 
##  6 Mitte                     2022 Apr   Fr    9H 43M 0S 
##  7 Steglitz-Zehlendorf       2022 Mär   Do    15H 51M 0S
##  8 berlinweit                2022 Mär   Do    14H 28M 0S
##  9 Pankow                    2022 Mär   Do    14H 19M 0S
## 10 Mitte                     2022 Mär   Do    13H 24M 0S
## # … with 18,602 more rows
…
To filter the observations, we can use the function filter(). As always in
tidyverse functions, filter() takes the data to be filtered as its first
argument and one or multiple expressions that specify the rules by which to
filter. To write these expressions, we can make use of the comparison operators
discussed in subchapter 2.3.2.

To filter for all years that are not 2022, we can write:

reports %>% 
  filter(year != 2022)
## # A tibble: 17,976 × 5
##    district                    year month day   time      
##    <chr>                      <dbl> <ord> <ord> <Period>  
##  1 Mitte                       2021 Dez   Fr    10H 56M 0S
##  2 Neukölln                    2021 Dez   Fr    9H 50M 0S 
##  3 Treptow-Köpenick            2021 Dez   Do    16H 29M 0S
##  4 Mitte                       2021 Dez   Do    15H 32M 0S
##  5 Steglitz-Zehlendorf         2021 Dez   Do    15H 18M 0S
##  6 bezirksübergreifend         2021 Dez   Do    11H 25M 0S
##  7 Marzahn-Hellersdorf         2021 Dez   Do    10H 9M 0S 
##  8 Tempelhof-Schöneberg        2021 Dez   Do    10H 4M 0S 
##  9 Charlottenburg-Wilmersdorf  2021 Dez   Do    9H 58M 0S 
## 10 Friedrichshain-Kreuzberg    2021 Dez   Do    8H 28M 0S 
## # … with 17,966 more rows

Thus, only the observations where “year” does not equal “2022” remain in the
tibble; more accurately, those observations for which the expression
year != 2022 is returned as TRUE.

Closer inspection of the data reveals, that 2014 (the first year that is
available on the website) is not complete either. There also seems to be one
single report for 2013. We should also exclude these years for analysis. We can
chain multiple expressions when using filter() separated by commas.

reports %>% 
  filter(year != 2022, year != 2014, year != 2013)
## # A tibble: 17,273 × 5
##    district                    year month day   time      
##    <chr>                      <dbl> <ord> <ord> <Period>  
##  1 Mitte                       2021 Dez   Fr    10H 56M 0S
##  2 Neukölln                    2021 Dez   Fr    9H 50M 0S 
##  3 Treptow-Köpenick            2021 Dez   Do    16H 29M 0S
##  4 Mitte                       2021 Dez   Do    15H 32M 0S
##  5 Steglitz-Zehlendorf         2021 Dez   Do    15H 18M 0S
##  6 bezirksübergreifend         2021 Dez   Do    11H 25M 0S
##  7 Marzahn-Hellersdorf         2021 Dez   Do    10H 9M 0S 
##  8 Tempelhof-Schöneberg        2021 Dez   Do    10H 4M 0S 
##  9 Charlottenburg-Wilmersdorf  2021 Dez   Do    9H 58M 0S 
## 10 Friedrichshain-Kreuzberg    2021 Dez   Do    8H 28M 0S 
## # … with 17,263 more rows
…
The analysis by month again shows no systematic variation. Looking at the
reports by day of the week on the other hand, shows a slight increase in reports
over the week, culminating on Friday. As stated above, we do not really know
how the data is created, so the main point to take away from this analysis might
be, that the PR team of the Berlin police also works on the weekend.

In the same manner, we can analyse the number of released police reports by
district.

reports_fyears %>% 
  group_by(district) %>% 
  summarise(reports = n())
## # A tibble: 22 × 2
##    district                     reports
##    <chr>                          <int>
##  1 berlinweit                       282
##  2 bezirksübergreifend              842
##  3 bundesweit                        44
##  4 Charlottenburg - Wilmersdorf     513
##  5 Charlottenburg-Wilmersdorf      1088
##  6 Friedrichshain - Kreuzberg       577
##  7 Friedrichshain-Kreuzberg        1337
##  8 Lichtenberg                      930
##  9 Marzahn - Hellersdorf            225
## 10 Marzahn-Hellersdorf              627
## # … with 12 more rows
…
