13 Regular expressions | Web Scraping using R
…
In chapter 11 we saw district names with two parts that are sometimes
written with and sometimes without whitespace around the dash, as seen here:

reports %>%
  group_by(District) %>%
  summarize(reports = n())
## # A tibble: 22 × 2
##    District                                  reports
##    <chr>                                       <int>
##  1 Ereignisort: berlinweit                       309
##  2 Ereignisort: bezirksübergreifend              861
##  3 Ereignisort: bundesweit                        47
##  4 Ereignisort: Charlottenburg - Wilmersdorf     579
##  5 Ereignisort: Charlottenburg-Wilmersdorf      1138
##  6 Ereignisort: Friedrichshain - Kreuzberg       661
##  7 Ereignisort: Friedrichshain-Kreuzberg        1405
##  8 Ereignisort: Lichtenberg                     1008
##  9 Ereignisort: Marzahn - Hellersdorf            253
## 10 Ereignisort: Marzahn-Hellersdorf              659
## # … with 12 more rows
…
Escape characters are hard to understand when starting out using regular
expressions, but for now it is enough to know that some characters have to be
escaped and that you find a full list of those in the cheat sheet linked above.

In a similar way, we have to use two escape characters in "\\s" to make R
interpret it not as an “s” but as the shortcut for whitespace characters we want
to use:

reports %>%
  mutate(District = str_remove(District, pattern = "\\s")) %>%
  group_by(District) %>%
  summarize(reports = n())
## # A tibble: 22 × 2
##    District                                 reports
##    <chr>                                      <int>
##  1 Ereignisort:berlinweit                       309
##  2 Ereignisort:bezirksübergreifend              861
##  3 Ereignisort:bundesweit                        47
##  4 Ereignisort:Charlottenburg - Wilmersdorf     579
##  5 Ereignisort:Charlottenburg-Wilmersdorf      1138
##  6 Ereignisort:Friedrichshain - Kreuzberg       661
##  7 Ereignisort:Friedrichshain-Kreuzberg        1405
##  8 Ereignisort:Lichtenberg                     1008
##  9 Ereignisort:Marzahn - Hellersdorf            253
## 10 Ereignisort:Marzahn-Hellersdorf              659
## # … with 12 more rows
…
