10 Scraping Berlin police reports | Web Scraping using R
…
for (i in 1:length(list_items)) {
  reports[i, "Date"] <- html_element(list_items[[i]], css = "div.cell.nowrap.date") %>% 
    html_text()
  reports[i, "Report"] <- html_element(list_items[[i]], css = "div.cell.text > a") %>% 
    html_text()
  reports[i, "District"] <- html_element(list_items[[i]], css = "div.cell.text > span.category") %>% 
    html_text()
}

Let’s look at the tibble we just constructed:

reports
## # A tibble: 21,952 × 3
##    Date                 Report                                          District
##    <chr>                <chr>                                           <chr>   
##  1 16.10.2023 17:55 Uhr Verdacht eines Tötungsdeliktes - Mordkommissio… Ereigni…
##  2 16.10.2023 17:49 Uhr Gefährliche Körperverletzung durch Schuss - Du… Ereigni…
##  3 16.10.2023 14:43 Uhr Vorkommnisse im Zusammenhang mit dem Nahost-Ko… Ereigni…
##  4 16.10.2023 11:26 Uhr Festnahme nach räuberischem Diebstahl           Ereigni…
##  5 16.10.2023 10:07 Uhr Verletzte Radfahrerin in Krankenhaus verstorben Ereigni…
##  6 16.10.2023 09:53 Uhr Brandstiftung an mehreren Fahrzeugen            Ereigni…
##  7 15.10.2023 21:07 Uhr Verkehrsunfall mit Sonder- und Wegerechten      Ereigni…
##  8 15.10.2023 15:46 Uhr Raub im Juweliergeschäft                        Ereigni…
##  9 15.10.2023 14:59 Uhr Einkaufswagen aus Hochhaus geworfen - Mordkomm… Ereigni…
## 10 15.10.2023 14:47 Uhr Vorkommnisse im Zusammenhang mit den weltweite… Ereigni…
## # ℹ 21,942 more rows
…
